{
  "data": [
    {
      "id": "1",
      "title": "Feira de adoção de animais na Redenção",
      "price": 29.99,
      "latitude": "-30.0392981",
      "longitude": "-51.2146267",
      "image": "http://lproweb.procempa.com.br/pmpa/prefpoa/seda_news/usu_img/Papel%20de%20Parede.png",
      "description": "O Patas Dadas estará na Redenção, nesse domingo, com cães para adoção e produtos à venda!\n\nNa ocasião, teremos bottons, bloquinhos e camisetas!\n\nTraga seu Pet, os amigos e o chima, e venha aproveitar esse dia de sol com a gente e com alguns de nossos peludinhos - que estarão prontinhos para ganhar o ♥ de um humano bem legal pra chamar de seu. \n\nAceitaremos todos os tipos de doação:\n- guias e coleiras em bom estado\n- ração (as que mais precisamos no momento são sênior e filhote)\n- roupinhas \n- cobertas \n- remédios dentro do prazo de validade",
      "date": 1534784400000,
      "people": [
        {
          "id": "1",
          "eventId": "1",
          "name": "Alexandre Pires",
          "picture": "https://images.pexels.com/photos/1292306/pexels-photo-1292306.jpeg"
        },
        {
          "id": "2",
          "eventId": "1",
          "name": "Jéssica Souza",
          "picture": "https://images.pexels.com/photos/1310522/pexels-photo-1310522.jpeg"
        },
        {
          "id": "6",
          "eventId": "1",
          "name": "Boanerges Oliveira",
          "picture": "https://images.pexels.com/photos/542282/pexels-photo-542282.jpeg"
        },
        {
          "id": "7",
          "eventId": "1",
          "name": "Felipe Smith",
          "picture": "https://images.pexels.com/photos/220453/pexels-photo-220453.jpeg"
        },
        {
          "id": "11",
          "eventId": "1",
          "name": "Paulo Santos",
          "picture": "https://images.pexels.com/photos/1334945/pexels-photo-1334945.jpeg"
        }
      ],
      "cupons": [
        {
          "id": "1",
          "eventId": "1",
          "discount": 12
        }
      ]
    },
    {
      "id": "2",
      "title": "Doação de roupas",
      "price": 59.99,
      "latitude": -30.037878,
      "longitude": -51.2148497,
      "image": "http://fm103.com.br/wp-content/uploads/2017/07/campanha-do-agasalho-balneario-camboriu-2016.jpg",
      "description": "Vamos ajudar !!\n\nSe você tem na sua casa roupas que estão em bom estado de uso e não sabemos que fazer, coloque aqui na nossa página sua cidade e sua doação, concerteza poderá ajudar outras pessoas que estão passando por problemas econômicos no momento!!\n\nAjudar não faz mal a ninguém!!!\n",
      "date": 1534784400000,
      "people": [
        {
          "id": "12",
          "eventId": "2",
          "name": "Alexandre Pires",
          "picture": "https://images.pexels.com/photos/1292306/pexels-photo-1292306.jpeg"
        },
        {
          "id": "21",
          "eventId": "2",
          "name": "Jéssica Souza",
          "picture": "https://images.pexels.com/photos/1310522/pexels-photo-1310522.jpeg"
        },
        {
          "id": "61",
          "eventId": "2",
          "name": "Boanerges Oliveira",
          "picture": "https://images.pexels.com/photos/542282/pexels-photo-542282.jpeg"
        }
      ],
      "cupons": [
        {
          "id": "2",
          "eventId": "2",
          "discount": 86
        }
      ]
    },
    {
      "id": "3",
      "title": "Feira de Troca de Livros",
      "price": 19.99,
      "latitude": -30.037878,
      "longitude": -51.2148497,
      "image": "http://www.fernaogaivota.com.br/documents/10179/1665610/feira-troca-de-livros.jpg",
      "description": "Atenção! Para nosso brique ser o mais organizado possível, leia as regras e cumpra-as:\n* Ao publicar seus livros, evite criar álbuns (não há necessidade de remetê-los a nenhum álbum);\n* A publicação deverá conter o valor desejado;\n* É preferível publicar uma foto do livro em questão a fim de mostrar o estado em que se encontra;\n* Respeite a ordem da fila;\n* Horário e local de encontro devem ser combinados inbox;\n* Caso não possa comparecer, avise seu comprador/vendedor previamente;\n* Caso seu comprador desista, comente o post com \"disponível\";\n* Não se esqueça de apagar a publicação se o livro já foi vendido, ou ao menos comente \"vendido\" para que as administradoras possam apagá-la;\n* Evite discussões e respeite o próximo;\n",
      "date": 1534784400000,
      "people": [
        {
          "id": "71",
          "eventId": "3",
          "name": "Felipe Smith",
          "picture": "https://images.pexels.com/photos/220453/pexels-photo-220453.jpeg"
        },
        {
          "id": "11",
          "eventId": "3",
          "name": "Paulo Santos",
          "picture": "https://images.pexels.com/photos/1334945/pexels-photo-1334945.jpeg"
        }
      ],
      "cupons": [
        {
          "id": "3",
          "eventId": "3",
          "discount": 54
        }
      ]
    },
    {
      "id": "4",
      "title": "Feira de Produtos Naturais e Orgânicos",
      "price": 19,
      "latitude": -30.037878,
      "longitude": -51.2148497,
      "image": "https://i2.wp.com/assentopublico.com.br/wp-content/uploads/2017/07/Feira-de-alimentos-org%C3%A2nicos-naturais-e-artesanais-ganha-um-novo-espa%C3%A7o-em-Ribeir%C3%A3o.jpg",
      "description": "Toda quarta-feira, das 17h às 22h, encontre a feira mais charmosa de produtos frescos, naturais e orgânicos no estacionamento do Shopping. Sintonizado com a tendência crescente de busca pela alimentação saudável, consumo consciente e qualidade de vida. \n\nAs barracas terão grande variedade de produtos, como o shiitake cultivado em Ibiporã há mais de 20 anos, um sucesso na mesa dos que não abrem mão do saudável cogumelo na dieta. Ou os laticínios orgânicos da Estância Baobá, famosos pelo qualidade e modo de fabricação sustentável na vizinha Jaguapitã. Também estarão na feira as conhecidas compotas e patês tradicionais da Pousada Marabú, de Rolândia.\n\nA feira do Catuaí é uma nova opção de compras de produtos que não são facilmente encontrados no varejo tradicional, além de ótima pedida para o descanso de final de tarde em família e entre amigos. E com o diferencial de ser noturna, facilitando a vida dos consumidores que poderão sair do trabalho e ir direto para a “Vila Verde”, onde será possível degustar delícias saudáveis nos bistrôs, ouvir música ao vivo, levar as crianças para a diversão em uma estação de brinquedos e relaxar ao ar livre.\n\nEXPOSITORES DA VILA VERDE CATUAÍ\n\nCraft Hamburgueria\nNido Pastíficio\nSabor e Saúde\nTerra Planta\nEmpório da Papinha\nEmpório Sabor da Serra\nBoleria Dom Leonardi\nCoisas que te ajudam a viver\nPatês da Marisa\nMarabú\nBaobá\nAkko\nCervejaria Amadeus\n12 Tribos\nParr Kitchen\nHorta Fazenda São Virgílio\nHorta Chácara Santo Antonio\nSur Empanadas\nFit & Sweet\nSK e T Cogumelos\nDos Quintana\n\nLocal: Estacionamento (entrada principal do Catuaí Shopping Londrina)\n\n\nAcesso à Feira gratuito.",
      "date": 1534784400000,
      "people": [
        {
          "id": "111",
          "eventId": "4",
          "name": "Alexandre Pires",
          "picture": "https://images.pexels.com/photos/1292306/pexels-photo-1292306.jpeg"
        },
        {
          "id": "211",
          "eventId": "4",
          "name": "Jéssica Souza",
          "picture": "https://images.pexels.com/photos/1310522/pexels-photo-1310522.jpeg"
        },
        {
          "id": "611",
          "eventId": "4",
          "name": "Boanerges Oliveira",
          "picture": "https://images.pexels.com/photos/542282/pexels-photo-542282.jpeg"
        },
        {
          "id": "711",
          "eventId": "4",
          "name": "Felipe Smith",
          "picture": "https://images.pexels.com/photos/220453/pexels-photo-220453.jpeg"
        },
        {
          "id": "1111",
          "eventId": "4",
          "name": "Paulo Santos",
          "picture": "https://images.pexels.com/photos/1334945/pexels-photo-1334945.jpeg"
        }
      ],
      "cupons": [
        {
          "id": "4",
          "eventId": "4",
          "discount": 28
        }
      ]
    },
    {
      "id": "5",
      "title": "Hackathon Social Woop Sicredi",
      "price": 59.99,
      "latitude": -30.037878,
      "longitude": -51.2148497,
      "image": "https://static.wixstatic.com/media/579ac9_81e9766eaa2741a284e7a7f729429022~mv2.png",
      "description": "Uma maratona de programação, na qual estudantes e profissionais das áreas de DESIGN, PROGRAMAÇÃO e MARKETING se reunirão para criar projetos com impacto social positivo através dos pilares de Educação Financeira e Colaborar para Transformar.\n\nO evento será realizado por duas empresas que são movidas pela transformação: o Woop Sicredi e a Smile Flame.\n\n// Pra ficar esperto:\n\n- 31/08, 01 e 02 de Setembro, na PUCRS;\n- 34 horas de duração;\n- Atividades direcionadas para criação de soluções digitais de impacto social;\n- Mentorias para apoiar o desenvolvimento das soluções;\n- Conteúdo de apoio; \n- Alimentação inclusa;\n\n// Programação\n\nSexta-feira - 31/08 - 19h ás 22h\nSábado e Domingo - 01 e 02/09 - 9h do dia 01/09 até as 18h do dia 02/09.\n\n// Realização\nWoop Sicredi\nSmile Flame\n\nMaiores infos em: https://www.hackathonsocial.com.br/\nTá com dúvida? Manda um e-mail pra gabriel@smileflame.com\n\nEaí, ta tão animado quanto nós? Let´s hack!",
      "date": 1534784400000,
      "people": [],
      "cupons": [
        {
          "id": "5",
          "eventId": "5",
          "discount": 99
        }
      ]
    }
  ]
}